/home/ubuntu/eclipse-workspace/Rest__Assured/src/test/java/Rest/Rest__Assured/DELETE.java
/home/ubuntu/eclipse-workspace/Rest__Assured/src/test/java/Rest/Rest__Assured/PATCH.java
/home/ubuntu/eclipse-workspace/Rest__Assured/src/test/java/Rest/Rest__Assured/POST_USERBDD.java
/home/ubuntu/eclipse-workspace/Rest__Assured/src/test/java/Rest/Rest__Assured/PUT_UPDATE.java
/home/ubuntu/eclipse-workspace/Rest__Assured/src/test/java/Rest/Rest__Assured/GET_LISTUSER_BDD.java
/home/ubuntu/eclipse-workspace/Rest__Assured/src/test/java/Rest/Rest__Assured/AppTest.java
