<?xml version="1.0" encoding="UTF-8"?>
<session version="1.0">
<refactoring comment="Copy element &apos;datadriven_properties.java&apos; to &apos;August_seleniumwebdriver/src/test/java/com.google.pack&apos;&#x0A;- Original project: &apos;August_seleniumwebdriver&apos;&#x0A;- Destination element: &apos;August_seleniumwebdriver/src/test/java/com.google.pack&apos;&#x0A;- Original element: &apos;com.google.pack.datadriven_properties.java&apos;" description="Copy compilation unit" destination="/src\/test\/java=/optional=/true=/=/maven.pomderived=/true=/=/test=/true=/&lt;com.google.pack" element1="/src\/test\/java=/optional=/true=/=/maven.pomderived=/true=/=/test=/true=/&lt;com.google.pack{datadriven_properties.java" files="0" flags="589830" folders="0" id="org.eclipse.jdt.ui.copy" policy="org.eclipse.jdt.ui.copyResources" stamp="1693329813574" units="1" version="1.0"/>
</session>